try.vcd
$date
  Fri Mar 25 22:35:19 2016
$end
$version
  GHDL v0
$end
$timescale
  1 fs
$end
$var reg 1 ! valid $end
$var reg 1 " boggis0 $end
$var reg 1 # boggis1 $end
$var reg 1 $ bunce0 $end
$var reg 1 % bunce1 $end
$var reg 1 & bean0 $end
$var reg 1 ' bean1 $end
$scope module uut $end
$var reg 1 ( valid $end
$var reg 1 ) boggis0 $end
$var reg 1 * boggis1 $end
$var reg 1 + bunce0 $end
$var reg 1 , bunce1 $end
$var reg 1 - bean0 $end
$var reg 1 . bean1 $end
$upscope $end
$enddefinitions $end
#0
0!
0"
0#
0$
0%
0&
0'
0(
0)
0*
0+
0,
0-
0.
#10000000
1!
1"
1(
1)
#20000000
0"
1#
0)
1*
#30000000
1"
1)
#40000000
0"
0#
1$
0)
0*
1+
#50000000
1"
1)
#60000000
0"
1#
0)
1*
#70000000
1"
1)
#80000000
0"
0#
0$
1%
0)
0*
0+
1,
#90000000
1"
1)
#100000000
0"
1#
0)
1*
#110000000
1"
1)
#120000000
0"
0#
1$
0)
0*
1+
#130000000
1"
1)
#140000000
0"
1#
0)
1*
#150000000
1"
1)
#160000000
0"
0#
0$
0%
1&
0)
0*
0+
0,
1-
#170000000
1"
1)
#180000000
0"
1#
0)
1*
#190000000
1"
1)
#200000000
0"
0#
1$
0)
0*
1+
#210000000
1"
1)
#220000000
0"
1#
0)
1*
#230000000
1"
1)
#240000000
0"
0#
0$
1%
0)
0*
0+
1,
#250000000
1"
1)
#260000000
0"
1#
0)
1*
#270000000
1"
1)
#280000000
0"
0#
1$
0)
0*
1+
#290000000
1"
1)
#300000000
0"
1#
0)
1*
#310000000
1"
1)
#320000000
0"
0#
0$
0%
0&
1'
0)
0*
0+
0,
0-
1.
#330000000
1"
1)
#340000000
0"
1#
0)
1*
#350000000
1"
1)
#360000000
0"
0#
1$
0)
0*
1+
#370000000
1"
1)
#380000000
0"
1#
0)
1*
#390000000
1"
1)
#400000000
0"
0#
0$
1%
0)
0*
0+
1,
#410000000
1"
1)
#420000000
0"
1#
0)
1*
#430000000
1"
1)
#440000000
0"
0#
1$
0)
0*
1+
#450000000
1"
1)
#460000000
0"
1#
0)
1*
#470000000
1"
1)
#480000000
0"
0#
0$
0%
1&
0)
0*
0+
0,
1-
#490000000
1"
1)
#500000000
0"
1#
0)
1*
#510000000
1"
1)
#520000000
0"
0#
1$
0)
0*
1+
#530000000
1"
1)
#540000000
0"
1#
0)
1*
#550000000
1"
1)
#560000000
0"
0#
0$
1%
0)
0*
0+
1,
#570000000
1"
1)
#580000000
0"
1#
0)
1*
#590000000
1"
1)
#600000000
0"
0#
1$
0)
0*
1+
#610000000
1"
1)
#620000000
0"
1#
0)
1*
#630000000
1"
1)
